rtl/pipelined_results.vcd
$date
	Sat Mar 15 08:07:59 2025
$end
$version
	Icarus Verilog
$end
$timescale
	1ps
$end
$scope module stimulus $end
$var parameter 32 ! DATA_WIDTH $end
$var reg 1 " clk $end
$var reg 1 # en $end
$var reg 1 $ rstn $end
$var integer 32 % i [31:0] $end
$scope module uut $end
$var wire 32 & ReadDateW [31:0] $end
$var wire 1 ' RegWriteW $end
$var wire 1 " clk $end
$var wire 1 # en $end
$var wire 1 $ rstn $end
$var wire 1 ( zeroE $end
$var wire 7 ) op [6:0] $end
$var wire 1 * funct7 $end
$var wire 3 + funct3 [2:0] $end
$var wire 32 , WritDataM [31:0] $end
$var wire 32 - WritDataE [31:0] $end
$var wire 1 . StallF $end
$var wire 1 / StallD $end
$var wire 32 0 SrcBE [31:0] $end
$var wire 32 1 SrcAE [31:0] $end
$var wire 5 2 Rs2E [4:0] $end
$var wire 5 3 Rs2D [4:0] $end
$var wire 5 4 Rs1E [4:0] $end
$var wire 5 5 Rs1D [4:0] $end
$var wire 32 6 ResultW [31:0] $end
$var wire 2 7 ResultSrcW [1:0] $end
$var wire 2 8 ResultSrcM [1:0] $end
$var wire 2 9 ResultSrcE [1:0] $end
$var wire 2 : ResultSrcD [1:0] $end
$var wire 1 ; RegWriteM $end
$var wire 1 < RegWriteE $end
$var wire 1 = RegWriteD $end
$var wire 32 > ReadDateM [31:0] $end
$var wire 5 ? RdW [4:0] $end
$var wire 5 @ RdM [4:0] $end
$var wire 5 A RdE [4:0] $end
$var wire 5 B RdD [4:0] $end
$var wire 32 C RD2E [31:0] $end
$var wire 32 D RD2D [31:0] $end
$var wire 32 E RD1E [31:0] $end
$var wire 32 F RD1D [31:0] $end
$var wire 32 G PCTargetE [31:0] $end
$var wire 1 H PCSrcE $end
$var wire 32 I PCPlus4W [31:0] $end
$var wire 32 J PCPlus4M [31:0] $end
$var wire 32 K PCPlus4F [31:0] $end
$var wire 32 L PCPlus4E [31:0] $end
$var wire 32 M PCPlus4D [31:0] $end
$var wire 32 N PCNext [31:0] $end
$var wire 32 O PCF [31:0] $end
$var wire 32 P PCE [31:0] $end
$var wire 32 Q PCD [31:0] $end
$var wire 1 R MemWriteM $end
$var wire 1 S MemWriteE $end
$var wire 1 T MemWriteD $end
$var wire 1 U JumpE $end
$var wire 1 V JumpD $end
$var wire 32 W InstrF [31:0] $end
$var wire 32 X InstrD [31:0] $end
$var wire 32 Y Immidate [31:0] $end
$var wire 2 Z ImmSrcD [1:0] $end
$var wire 32 [ ImmExtE [31:0] $end
$var wire 32 \ ImmExtD [31:0] $end
$var wire 32 ] Forwarded_SrcB [31:0] $end
$var wire 2 ^ ForwardBE [1:0] $end
$var wire 2 _ ForwardAE [1:0] $end
$var wire 1 ` FlushE $end
$var wire 1 a FlushD $end
$var wire 1 b BranchE $end
$var wire 1 c BranchD $end
$var wire 1 d ALUSrcE $end
$var wire 1 e ALUSrcD $end
$var wire 32 f ALUResultW [31:0] $end
$var wire 32 g ALUResultM [31:0] $end
$var wire 32 h ALUResultE [31:0] $end
$var wire 3 i ALUControlE [2:0] $end
$var wire 3 j ALUControlD [2:0] $end
$var parameter 32 k ADDRESS_BIT_WIDTH $end
$var parameter 32 l DATA_MEM_CAPACITY $end
$var parameter 32 m DATA_WIDTH $end
$var parameter 32 n INSTR_MEM_CAPACITY $end
$var parameter 32 o NB_OF_REGS $end
$scope module ADDER_PC $end
$var wire 32 p b [31:0] $end
$var wire 1 # en $end
$var wire 1 $ rstn $end
$var wire 32 q y [31:0] $end
$var wire 32 r a [31:0] $end
$var parameter 32 s DATA_WIDTH $end
$upscope $end
$scope module ADDER_PCTarget $end
$var wire 1 # en $end
$var wire 1 $ rstn $end
$var wire 32 t y [31:0] $end
$var wire 32 u b [31:0] $end
$var wire 32 v a [31:0] $end
$var parameter 32 w DATA_WIDTH $end
$upscope $end
$scope module ALU $end
$var wire 1 # en $end
$var wire 1 $ rstn $end
$var wire 1 ( zero $end
$var wire 32 x srcb [31:0] $end
$var wire 32 y srca [31:0] $end
$var wire 3 z control [2:0] $end
$var parameter 32 { DATA_WIDTH $end
$var parameter 3 | OP_ADD $end
$var parameter 3 } OP_AND $end
$var parameter 3 ~ OP_OR $end
$var parameter 3 !" OP_SLT $end
$var parameter 3 "" OP_SUB $end
$var reg 32 #" y [31:0] $end
$upscope $end
$scope module CU $end
$var wire 1 " clk $end
$var wire 1 # en $end
$var wire 3 $" funct3 [2:0] $end
$var wire 1 * funct7 $end
$var wire 7 %" op [6:0] $end
$var wire 1 $ rstn $end
$var wire 1 &" op_5 $end
$var wire 1 '" funct7_5 $end
$var wire 3 (" func3_2_0 [2:0] $end
$var parameter 32 )" DATA_WIDTH $end
$var parameter 3 *" OP_ADD $end
$var parameter 3 +" OP_AND $end
$var parameter 3 ," OP_OR $end
$var parameter 3 -" OP_SLT $end
$var parameter 3 ." OP_SUB $end
$var parameter 7 /" R_type $end
$var parameter 7 0" addi $end
$var parameter 7 1" beq $end
$var parameter 7 2" jal $end
$var parameter 7 3" lw $end
$var parameter 7 4" sw $end
$var reg 3 5" ALUControl [2:0] $end
$var reg 3 6" ALUOp [2:0] $end
$var reg 1 e ALUSrc $end
$var reg 1 c Branch $end
$var reg 2 7" ImmSrc [1:0] $end
$var reg 1 V Jump $end
$var reg 1 T MemWrite $end
$var reg 1 = RegWrite $end
$var reg 2 8" ResultSrc [1:0] $end
$upscope $end
$scope module DATA_MEM $end
$var wire 1 " clk $end
$var wire 1 # en $end
$var wire 1 $ rstn $end
$var wire 1 R WE $end
$var wire 32 9" WD [31:0] $end
$var wire 32 :" RD [31:0] $end
$var wire 32 ;" A [31:0] $end
$var parameter 32 <" DATA_WIDTH $end
$var parameter 32 =" MEM_CAPACITY $end
$var integer 32 >" i [31:0] $end
$upscope $end
$scope module DFF_ALUControlE $end
$var wire 3 ?" D [2:0] $end
$var wire 1 " clk $end
$var wire 1 @" clr $end
$var wire 1 # en $end
$var wire 1 $ rstn $end
$var parameter 32 A" DATA_WIDTH $end
$var reg 3 B" Q [2:0] $end
$upscope $end
$scope module DFF_ALUResult $end
$var wire 32 C" D [31:0] $end
$var wire 1 " clk $end
$var wire 1 D" clr $end
$var wire 1 # en $end
$var wire 1 $ rstn $end
$var parameter 32 E" DATA_WIDTH $end
$var reg 32 F" Q [31:0] $end
$upscope $end
$scope module DFF_ALUResultW $end
$var wire 32 G" D [31:0] $end
$var wire 1 " clk $end
$var wire 1 H" clr $end
$var wire 1 # en $end
$var wire 1 $ rstn $end
$var parameter 32 I" DATA_WIDTH $end
$var reg 32 J" Q [31:0] $end
$upscope $end
$scope module DFF_ALUSrcE $end
$var wire 1 e D $end
$var wire 1 " clk $end
$var wire 1 K" clr $end
$var wire 1 # en $end
$var wire 1 $ rstn $end
$var parameter 32 L" DATA_WIDTH $end
$var reg 1 d Q $end
$upscope $end
$scope module DFF_BranchE $end
$var wire 1 c D $end
$var wire 1 " clk $end
$var wire 1 M" clr $end
$var wire 1 # en $end
$var wire 1 $ rstn $end
$var parameter 32 N" DATA_WIDTH $end
$var reg 1 b Q $end
$upscope $end
$scope module DFF_INSTR $end
$var wire 1 " clk $end
$var wire 1 O" en $end
$var wire 1 $ rstn $end
$var wire 1 a clr $end
$var wire 32 P" D [31:0] $end
$var parameter 32 Q" DATA_WIDTH $end
$var reg 32 R" Q [31:0] $end
$upscope $end
$scope module DFF_ImmExt $end
$var wire 1 " clk $end
$var wire 1 # en $end
$var wire 1 $ rstn $end
$var wire 1 ` clr $end
$var wire 32 S" D [31:0] $end
$var parameter 32 T" DATA_WIDTH $end
$var reg 32 U" Q [31:0] $end
$upscope $end
$scope module DFF_JumpE $end
$var wire 1 V D $end
$var wire 1 " clk $end
$var wire 1 V" clr $end
$var wire 1 # en $end
$var wire 1 $ rstn $end
$var parameter 32 W" DATA_WIDTH $end
$var reg 1 U Q $end
$upscope $end
$scope module DFF_MemWriteE $end
$var wire 1 T D $end
$var wire 1 " clk $end
$var wire 1 X" clr $end
$var wire 1 # en $end
$var wire 1 $ rstn $end
$var parameter 32 Y" DATA_WIDTH $end
$var reg 1 S Q $end
$upscope $end
$scope module DFF_MemWriteM $end
$var wire 1 S D $end
$var wire 1 " clk $end
$var wire 1 Z" clr $end
$var wire 1 # en $end
$var wire 1 $ rstn $end
$var parameter 32 [" DATA_WIDTH $end
$var reg 1 R Q $end
$upscope $end
$scope module DFF_PCD $end
$var wire 1 " clk $end
$var wire 1 \" en $end
$var wire 1 $ rstn $end
$var wire 1 a clr $end
$var wire 32 ]" D [31:0] $end
$var parameter 32 ^" DATA_WIDTH $end
$var reg 32 _" Q [31:0] $end
$upscope $end
$scope module DFF_PCE $end
$var wire 32 `" D [31:0] $end
$var wire 1 " clk $end
$var wire 1 # en $end
$var wire 1 $ rstn $end
$var wire 1 ` clr $end
$var parameter 32 a" DATA_WIDTH $end
$var reg 32 b" Q [31:0] $end
$upscope $end
$scope module DFF_PCF $end
$var wire 1 " clk $end
$var wire 1 c" clr $end
$var wire 1 d" en $end
$var wire 1 $ rstn $end
$var wire 32 e" D [31:0] $end
$var parameter 32 f" DATA_WIDTH $end
$var reg 32 g" Q [31:0] $end
$upscope $end
$scope module DFF_PCPlus4D $end
$var wire 32 h" D [31:0] $end
$var wire 1 " clk $end
$var wire 1 i" en $end
$var wire 1 $ rstn $end
$var wire 1 a clr $end
$var parameter 32 j" DATA_WIDTH $end
$var reg 32 k" Q [31:0] $end
$upscope $end
$scope module DFF_PCPlus4E $end
$var wire 32 l" D [31:0] $end
$var wire 1 " clk $end
$var wire 1 # en $end
$var wire 1 $ rstn $end
$var wire 1 ` clr $end
$var parameter 32 m" DATA_WIDTH $end
$var reg 32 n" Q [31:0] $end
$upscope $end
$scope module DFF_PCPlus4M $end
$var wire 32 o" D [31:0] $end
$var wire 1 " clk $end
$var wire 1 p" clr $end
$var wire 1 # en $end
$var wire 1 $ rstn $end
$var parameter 32 q" DATA_WIDTH $end
$var reg 32 r" Q [31:0] $end
$upscope $end
$scope module DFF_PCPlus4W $end
$var wire 32 s" D [31:0] $end
$var wire 1 " clk $end
$var wire 1 t" clr $end
$var wire 1 # en $end
$var wire 1 $ rstn $end
$var parameter 32 u" DATA_WIDTH $end
$var reg 32 v" Q [31:0] $end
$upscope $end
$scope module DFF_RD1 $end
$var wire 1 " clk $end
$var wire 1 # en $end
$var wire 1 $ rstn $end
$var wire 1 ` clr $end
$var wire 32 w" D [31:0] $end
$var parameter 32 x" DATA_WIDTH $end
$var reg 32 y" Q [31:0] $end
$upscope $end
$scope module DFF_RD2 $end
$var wire 1 " clk $end
$var wire 1 # en $end
$var wire 1 $ rstn $end
$var wire 1 ` clr $end
$var wire 32 z" D [31:0] $end
$var parameter 32 {" DATA_WIDTH $end
$var reg 32 |" Q [31:0] $end
$upscope $end
$scope module DFF_RdD $end
$var wire 5 }" D [4:0] $end
$var wire 1 " clk $end
$var wire 1 ~" en $end
$var wire 1 $ rstn $end
$var wire 1 a clr $end
$var parameter 32 !# DATA_WIDTH $end
$var reg 5 "# Q [4:0] $end
$upscope $end
$scope module DFF_RdE $end
$var wire 5 ## D [4:0] $end
$var wire 1 " clk $end
$var wire 1 # en $end
$var wire 1 $ rstn $end
$var wire 1 ` clr $end
$var parameter 32 $# DATA_WIDTH $end
$var reg 5 %# Q [4:0] $end
$upscope $end
$scope module DFF_RdM $end
$var wire 5 &# D [4:0] $end
$var wire 1 " clk $end
$var wire 1 '# clr $end
$var wire 1 # en $end
$var wire 1 $ rstn $end
$var parameter 32 (# DATA_WIDTH $end
$var reg 5 )# Q [4:0] $end
$upscope $end
$scope module DFF_RdW $end
$var wire 5 *# D [4:0] $end
$var wire 1 " clk $end
$var wire 1 +# clr $end
$var wire 1 # en $end
$var wire 1 $ rstn $end
$var parameter 32 ,# DATA_WIDTH $end
$var reg 5 -# Q [4:0] $end
$upscope $end
$scope module DFF_ReadDataM $end
$var wire 32 .# D [31:0] $end
$var wire 1 " clk $end
$var wire 1 /# clr $end
$var wire 1 # en $end
$var wire 1 $ rstn $end
$var parameter 32 0# DATA_WIDTH $end
$var reg 32 1# Q [31:0] $end
$upscope $end
$scope module DFF_RegWriteE $end
$var wire 1 = D $end
$var wire 1 " clk $end
$var wire 1 2# clr $end
$var wire 1 # en $end
$var wire 1 $ rstn $end
$var parameter 32 3# DATA_WIDTH $end
$var reg 1 < Q $end
$upscope $end
$scope module DFF_RegWriteM $end
$var wire 1 < D $end
$var wire 1 " clk $end
$var wire 1 4# clr $end
$var wire 1 # en $end
$var wire 1 $ rstn $end
$var parameter 32 5# DATA_WIDTH $end
$var reg 1 ; Q $end
$upscope $end
$scope module DFF_RegWriteW $end
$var wire 32 6# D [31:0] $end
$var wire 1 " clk $end
$var wire 1 7# clr $end
$var wire 1 # en $end
$var wire 1 $ rstn $end
$var parameter 32 8# DATA_WIDTH $end
$var reg 32 9# Q [31:0] $end
$upscope $end
$scope module DFF_ResultSrcE $end
$var wire 2 :# D [1:0] $end
$var wire 1 " clk $end
$var wire 1 ;# clr $end
$var wire 1 # en $end
$var wire 1 $ rstn $end
$var parameter 32 <# DATA_WIDTH $end
$var reg 2 =# Q [1:0] $end
$upscope $end
$scope module DFF_ResultSrcM $end
$var wire 2 ># D [1:0] $end
$var wire 1 " clk $end
$var wire 1 ?# clr $end
$var wire 1 # en $end
$var wire 1 $ rstn $end
$var parameter 32 @# DATA_WIDTH $end
$var reg 2 A# Q [1:0] $end
$upscope $end
$scope module DFF_ResultSrcW $end
$var wire 2 B# D [1:0] $end
$var wire 1 " clk $end
$var wire 1 C# clr $end
$var wire 1 # en $end
$var wire 1 $ rstn $end
$var parameter 32 D# DATA_WIDTH $end
$var reg 2 E# Q [1:0] $end
$upscope $end
$scope module DFF_Rs1E $end
$var wire 5 F# D [4:0] $end
$var wire 1 " clk $end
$var wire 1 # en $end
$var wire 1 $ rstn $end
$var wire 1 ` clr $end
$var parameter 32 G# DATA_WIDTH $end
$var reg 5 H# Q [4:0] $end
$upscope $end
$scope module DFF_Rs2E $end
$var wire 5 I# D [4:0] $end
$var wire 1 " clk $end
$var wire 1 # en $end
$var wire 1 $ rstn $end
$var wire 1 ` clr $end
$var parameter 32 J# DATA_WIDTH $end
$var reg 5 K# Q [4:0] $end
$upscope $end
$scope module DFF_WriteDataE $end
$var wire 32 L# D [31:0] $end
$var wire 1 " clk $end
$var wire 1 M# clr $end
$var wire 1 # en $end
$var wire 1 $ rstn $end
$var parameter 32 N# DATA_WIDTH $end
$var reg 32 O# Q [31:0] $end
$upscope $end
$scope module EXT $end
$var wire 2 P# ImmSrc [1:0] $end
$var wire 1 # en $end
$var wire 1 $ rstn $end
$var wire 32 Q# xin [31:0] $end
$var parameter 32 R# DATA_WIDTH $end
$var reg 32 S# y [31:0] $end
$upscope $end
$scope module HU $end
$var wire 1 H PCSrcE $end
$var wire 5 T# RdE [4:0] $end
$var wire 5 U# RdM [4:0] $end
$var wire 5 V# RdW [4:0] $end
$var wire 1 ; RegWriteM $end
$var wire 1 ' RegWriteW $end
$var wire 1 W# ResultSrcE0 $end
$var wire 5 X# Rs1D [4:0] $end
$var wire 5 Y# Rs1E [4:0] $end
$var wire 5 Z# Rs2D [4:0] $end
$var wire 5 [# Rs2E [4:0] $end
$var wire 1 # en $end
$var wire 1 $ rstn $end
$var parameter 32 \# DATA_WIDTH $end
$var reg 1 a FlushD $end
$var reg 1 ` FlushE $end
$var reg 2 ]# ForwardAE [1:0] $end
$var reg 2 ^# ForwardBE [1:0] $end
$var reg 1 / StallD $end
$var reg 1 . StallF $end
$var reg 1 _# lwStall $end
$upscope $end
$scope module INSTR_MEM $end
$var wire 32 `# A [31:0] $end
$var wire 1 # en $end
$var wire 1 $ rstn $end
$var wire 32 a# RD [31:0] $end
$var parameter 32 b# DATA_WIDTH $end
$var parameter 32 c# MEM_CAPACITY $end
$upscope $end
$scope module MUX2_PC $end
$var wire 32 d# a [31:0] $end
$var wire 32 e# b [31:0] $end
$var wire 1 # en $end
$var wire 1 $ rstn $end
$var wire 1 H sel $end
$var wire 32 f# y [31:0] $end
$var parameter 32 g# DATA_WIDTH $end
$upscope $end
$scope module MUX2_RD2 $end
$var wire 32 h# b [31:0] $end
$var wire 1 # en $end
$var wire 1 $ rstn $end
$var wire 1 d sel $end
$var wire 32 i# y [31:0] $end
$var wire 32 j# a [31:0] $end
$var parameter 32 k# DATA_WIDTH $end
$upscope $end
$scope module MUX3_Result $end
$var wire 32 l# a [31:0] $end
$var wire 32 m# b [31:0] $end
$var wire 32 n# c [31:0] $end
$var wire 1 # en $end
$var wire 1 $ rstn $end
$var wire 2 o# sel [1:0] $end
$var parameter 32 p# DATA_WIDTH $end
$var reg 32 q# y [31:0] $end
$upscope $end
$scope module MUX3_SrcAE $end
$var wire 32 r# a [31:0] $end
$var wire 32 s# b [31:0] $end
$var wire 32 t# c [31:0] $end
$var wire 1 # en $end
$var wire 1 $ rstn $end
$var wire 2 u# sel [1:0] $end
$var parameter 32 v# DATA_WIDTH $end
$var reg 32 w# y [31:0] $end
$upscope $end
$scope module MUX3_SrcBE $end
$var wire 32 x# a [31:0] $end
$var wire 32 y# b [31:0] $end
$var wire 32 z# c [31:0] $end
$var wire 1 # en $end
$var wire 1 $ rstn $end
$var wire 2 {# sel [1:0] $end
$var parameter 32 |# DATA_WIDTH $end
$var reg 32 }# y [31:0] $end
$upscope $end
$scope module REG_FILE $end
$var wire 5 ~# A1 [4:0] $end
$var wire 5 !$ A2 [4:0] $end
$var wire 5 "$ A3 [4:0] $end
$var wire 32 #$ WD3 [31:0] $end
$var wire 1 ' WE3 $end
$var wire 1 " clk $end
$var wire 1 # en $end
$var wire 1 $ rstn $end
$var wire 32 $$ RD2 [31:0] $end
$var wire 32 %$ RD1 [31:0] $end
$var parameter 32 &$ ADDRESS_BIT_WIDTH $end
$var parameter 32 '$ DATA_WIDTH $end
$var parameter 32 ($ NB_OF_REGS $end
$var integer 32 )$ i [31:0] $end
$upscope $end
$upscope $end
$upscope $end
$enddefinitions $end
$comment Show the parameter values. $end
$dumpall
b100000 ($
b100000 '$
b101 &$
b100000 |#
b100000 v#
b100000 p#
b100000 k#
b100000 g#
b1010 c#
b100000 b#
b100000 \#
b100000 R#
b100000 N#
b101 J#
b101 G#
b10 D#
b10 @#
b10 <#
b100000 8#
b1 5#
b1 3#
b100000 0#
b101 ,#
b101 (#
b101 $#
b101 !#
b100000 {"
b100000 x"
b100000 u"
b100000 q"
b100000 m"
b100000 j"
b100000 f"
b100000 a"
b100000 ^"
b1 ["
b1 Y"
b1 W"
b100000 T"
b100000 Q"
b1 N"
b1 L"
b100000 I"
b100000 E"
b11 A"
b1010 ="
b100000 <"
b100011 4"
b11 3"
b1101111 2"
b1100011 1"
b10011 0"
b110011 /"
b1 ."
b101 -"
b11 ,"
b10 +"
b0 *"
b100000 )"
b1 ""
b101 !"
b11 ~
b10 }
b0 |
b100000 {
b100000 w
b100000 s
b100000 o
b1010 n
b100000 m
b1010 l
b101 k
b10000 !
$end
#0
$dumpvars
b100000 )$
b0 %$
b0 $$
b0 #$
b0 "$
b0 !$
b0 ~#
b0 }#
b0 {#
b0 z#
b0 y#
b0 x#
b0 w#
b0 u#
b0 t#
b0 s#
b0 r#
b0 q#
b0 o#
b0 n#
b0 m#
b0 l#
b0 j#
b0 i#
b0 h#
b0 f#
b0 e#
b0 d#
b0 a#
b0 `#
x_#
b0 ^#
b0 ]#
b0 [#
b0 Z#
b0 Y#
b0 X#
0W#
b0 V#
b0 U#
b0 T#
b0 S#
b0 Q#
b0 P#
b0 O#
0M#
b0 L#
b0 K#
b0 I#
b0 H#
b0 F#
b0 E#
0C#
b0 B#
b0 A#
0?#
b0 >#
b0 =#
0;#
b0 :#
b0 9#
07#
b0 6#
04#
02#
b0 1#
0/#
b0 .#
b0 -#
0+#
b0 *#
b0 )#
0'#
b0 &#
b0 %#
b0 ##
b0 "#
1~"
b0 }"
b0 |"
b0 z"
b0 y"
b0 w"
b0 v"
0t"
b0 s"
b0 r"
0p"
b0 o"
b0 n"
b0 l"
b0 k"
1i"
b0 h"
b0 g"
b0 e"
1d"
0c"
b0 b"
b0 `"
b0 _"
b0 ]"
1\"
0Z"
0X"
0V"
b0 U"
b0 S"
b0 R"
b0 P"
1O"
0M"
0K"
b0 J"
0H"
b0 G"
b0 F"
0D"
b0 C"
b0 B"
0@"
b0 ?"
b1010 >"
b0 ;"
b0 :"
b0 9"
b0 8"
b0 7"
b0 6"
b0 5"
b0 ("
0'"
0&"
b0 %"
b0 $"
b0 #"
b0 z
b0 y
b0 x
b0 v
b0 u
b0 t
b0 r
b0 q
b100 p
b0 j
b0 i
b0 h
b0 g
b0 f
0e
0d
0c
0b
xa
0`
b0 _
b0 ^
b0 ]
b0 \
b0 [
b0 Z
b0 Y
b0 X
b0 W
0V
0U
0T
0S
0R
b0 Q
b0 P
b0 O
b0 N
b0 M
b0 L
b0 K
b0 J
b0 I
0H
b0 G
b0 F
b0 E
b0 D
b0 C
b0 B
b0 A
b0 @
b0 ?
b0 >
0=
0<
0;
b0 :
b0 9
b0 8
b0 7
b0 6
b0 5
b0 4
b0 3
b0 2
b0 1
b0 0
1/
1.
b0 -
b0 ,
b0 +
0*
b0 )
z(
z'
b0 &
b1 %
0$
0#
0"
$end
#1000
b1010 >"
1"
#2000
b100000 )$
0"
#3000
b1010 >"
1"
#4000
b100000 )$
0"
#5000
1"
1$
#6000
0"
#7000
1"
#8000
0"
#9000
1"
#10000
b100 N
b100 e"
b100 f#
b100 K
b100 q
b100 h"
b100 d#
b11111111110001001010001100000011 W
b11111111110001001010001100000011 P"
b11111111110001001010001100000011 a#
0a
0/
0.
0_#
0"
1#
#11000
b1000 N
b1000 e"
b1000 f#
b11111111111111111111111111111100 \
b11111111111111111111111111111100 S"
b11111111111111111111111111111100 S#
b10000000000100 F
b10000000000100 w"
b10000000000100 %$
1'"
b10 ("
b1 :
b1 8"
b1 :#
1e
1=
b11111111110001001010001100000000 Y
b11111111110001001010001100000000 Q#
b11100 3
b11100 I#
b11100 Z#
b11100 !$
b1001 5
b1001 F#
b1001 X#
b1001 ~#
1*
b10 +
b10 $"
b11 )
b11 %"
bx W
bx P"
bx a#
b1000 K
b1000 q
b1000 h"
b1000 d#
b110 }"
b100 O
b100 r
b100 ]"
b100 g"
b100 `#
b11111111110001001010001100000011 X
b11111111110001001010001100000011 R"
b100 M
b100 k"
b100 l"
1"
#12000
0"
#13000
x&"
bx \
bx S"
bx S#
bx D
bx z"
bx $$
bx F
bx w"
bx %$
x'"
bx ("
b1100 N
b1100 e"
b1100 f#
x`
x/
x.
x_#
b11111111111111111111111111111100 0
b11111111111111111111111111111100 x
b11111111111111111111111111111100 i#
b10000000000000 h
b10000000000000 #"
b10000000000000 C"
bx0000000 Y
bx0000000 Q#
bx 3
bx I#
bx Z#
bx !$
bx 5
bx F#
bx X#
bx ~#
x*
bx +
bx $"
bx )
bx %"
1W#
b11111111111111111111111111111100 G
b11111111111111111111111111111100 t
b11111111111111111111111111111100 e#
b10000000000100 1
b10000000000100 y
b10000000000100 w#
bx }"
b1100 K
b1100 q
b1100 h"
b1100 d#
b1 9
b1 =#
b1 >#
1d
1<
b100 L
b100 n"
b100 o"
b11111111111111111111111111111100 [
b11111111111111111111111111111100 u
b11111111111111111111111111111100 U"
b11111111111111111111111111111100 h#
b11100 2
b11100 K#
b11100 [#
b1001 4
b1001 H#
b1001 Y#
b10000000000100 E
b10000000000100 y"
b10000000000100 r#
b110 B
b110 "#
b110 ##
b1000 M
b1000 k"
b1000 l"
b100 Q
b100 _"
b100 `"
bx X
bx R"
b1000 O
b1000 r
b1000 ]"
b1000 g"
b1000 `#
1"
#14000
0"
#15000
b10000 N
b10000 e"
b10000 f#
bx 0
bx x
bx i#
bx h
bx #"
bx C"
b10000 K
b10000 q
b10000 h"
b10000 d#
bx -
bx L#
bx G
bx t
bx e#
bx >
bx :"
bx .#
bx 6#
bx 1
bx y
bx w#
bx ]
bx j#
bx }#
b1100 O
b1100 r
b1100 ]"
b1100 g"
b1100 `#
b1000 Q
b1000 _"
b1000 `"
b1100 M
b1100 k"
b1100 l"
bx B
bx "#
bx ##
bx E
bx y"
bx r#
bx C
bx |"
bx x#
bx 4
bx H#
bx Y#
bx 2
bx K#
bx [#
b110 A
b110 %#
b110 &#
b110 T#
bx [
bx u
bx U"
bx h#
b100 P
b100 v
b100 b"
b1000 L
b1000 n"
b1000 o"
b10000000000000 g
b10000000000000 ;"
b10000000000000 F"
b10000000000000 G"
b10000000000000 t#
b10000000000000 z#
b100 J
b100 r"
b100 s"
1;
b1 8
b1 A#
b1 B#
1"
#16000
0"
#17000
b10100 N
b10100 e"
b10100 f#
bx 6
bx q#
bx #$
b10100 K
b10100 q
b10100 h"
b10100 d#
b1 7
b1 E#
b1 o#
bx 9#
b100 I
b100 v"
b100 n#
bx &
bx m#
bx s#
bx y#
bx 1#
b10000000000000 f
b10000000000000 J"
b10000000000000 l#
b1000 J
b1000 r"
b1000 s"
bx ,
bx 9"
bx O#
bx g
bx ;"
bx F"
bx G"
bx t#
bx z#
b110 @
b110 )#
b110 *#
b110 U#
b1100 L
b1100 n"
b1100 o"
b1000 P
b1000 v
b1000 b"
bx A
bx %#
bx &#
bx T#
b10000 M
b10000 k"
b10000 l"
b1100 Q
b1100 _"
b1100 `"
b10000 O
b10000 r
b10000 ]"
b10000 g"
b10000 `#
1"
#18000
0"
#19000
b11000 N
b11000 e"
b11000 f#
b11000 K
b11000 q
b11000 h"
b11000 d#
b10100 O
b10100 r
b10100 ]"
b10100 g"
b10100 `#
b10000 Q
b10000 _"
b10000 `"
b10100 M
b10100 k"
b10100 l"
b1100 P
b1100 v
b1100 b"
b10000 L
b10000 n"
b10000 o"
bx @
bx )#
bx *#
bx U#
b1100 J
b1100 r"
b1100 s"
b110 ?
b110 -#
b110 V#
b110 "$
bx f
bx J"
bx l#
b1000 I
b1000 v"
b1000 n#
1"
#20000
0"
#21000
b11100 N
b11100 e"
b11100 f#
b11100 K
b11100 q
b11100 h"
b11100 d#
b1100 I
b1100 v"
b1100 n#
bx ?
bx -#
bx V#
bx "$
b10000 J
b10000 r"
b10000 s"
b10100 L
b10100 n"
b10100 o"
b10000 P
b10000 v
b10000 b"
b11000 M
b11000 k"
b11000 l"
b10100 Q
b10100 _"
b10100 `"
b11000 O
b11000 r
b11000 ]"
b11000 g"
b11000 `#
1"
#22000
0"
#23000
b100000 N
b100000 e"
b100000 f#
b100000 K
b100000 q
b100000 h"
b100000 d#
b11100 O
b11100 r
b11100 ]"
b11100 g"
b11100 `#
b11000 Q
b11000 _"
b11000 `"
b11100 M
b11100 k"
b11100 l"
b10100 P
b10100 v
b10100 b"
b11000 L
b11000 n"
b11000 o"
b10100 J
b10100 r"
b10100 s"
b10000 I
b10000 v"
b10000 n#
1"
#24000
0"
#25000
b100100 N
b100100 e"
b100100 f#
b100100 K
b100100 q
b100100 h"
b100100 d#
b10100 I
b10100 v"
b10100 n#
b11000 J
b11000 r"
b11000 s"
b11100 L
b11100 n"
b11100 o"
b11000 P
b11000 v
b11000 b"
b100000 M
b100000 k"
b100000 l"
b11100 Q
b11100 _"
b11100 `"
b100000 O
b100000 r
b100000 ]"
b100000 g"
b100000 `#
1"
#26000
0"
#27000
b101000 N
b101000 e"
b101000 f#
b101000 K
b101000 q
b101000 h"
b101000 d#
b100100 O
b100100 r
b100100 ]"
b100100 g"
b100100 `#
b100000 Q
b100000 _"
b100000 `"
b100100 M
b100100 k"
b100100 l"
b11100 P
b11100 v
b11100 b"
b100000 L
b100000 n"
b100000 o"
b11100 J
b11100 r"
b11100 s"
b11000 I
b11000 v"
b11000 n#
1"
#28000
0"
#29000
b101100 N
b101100 e"
b101100 f#
b101100 K
b101100 q
b101100 h"
b101100 d#
b11100 I
b11100 v"
b11100 n#
b100000 J
b100000 r"
b100000 s"
b100100 L
b100100 n"
b100100 o"
b100000 P
b100000 v
b100000 b"
b101000 M
b101000 k"
b101000 l"
b100100 Q
b100100 _"
b100100 `"
b101000 O
b101000 r
b101000 ]"
b101000 g"
b101000 `#
1"
#30000
0"
#31000
b110000 N
b110000 e"
b110000 f#
b110000 K
b110000 q
b110000 h"
b110000 d#
b101100 O
b101100 r
b101100 ]"
b101100 g"
b101100 `#
b101000 Q
b101000 _"
b101000 `"
b101100 M
b101100 k"
b101100 l"
b100100 P
b100100 v
b100100 b"
b101000 L
b101000 n"
b101000 o"
b100100 J
b100100 r"
b100100 s"
b100000 I
b100000 v"
b100000 n#
1"
#32000
0"
#33000
b110100 N
b110100 e"
b110100 f#
b110100 K
b110100 q
b110100 h"
b110100 d#
b100100 I
b100100 v"
b100100 n#
b101000 J
b101000 r"
b101000 s"
b101100 L
b101100 n"
b101100 o"
b101000 P
b101000 v
b101000 b"
b110000 M
b110000 k"
b110000 l"
b101100 Q
b101100 _"
b101100 `"
b110000 O
b110000 r
b110000 ]"
b110000 g"
b110000 `#
1"
#34000
0"
#35000
b111000 N
b111000 e"
b111000 f#
b111000 K
b111000 q
b111000 h"
b111000 d#
b110100 O
b110100 r
b110100 ]"
b110100 g"
b110100 `#
b110000 Q
b110000 _"
b110000 `"
b110100 M
b110100 k"
b110100 l"
b101100 P
b101100 v
b101100 b"
b110000 L
b110000 n"
b110000 o"
b101100 J
b101100 r"
b101100 s"
b101000 I
b101000 v"
b101000 n#
1"
#36000
0"
